…
#present as table  
monthly_summ_1 %>%
 #kable (digits=4, align = rep('c',5)) %>%
  #kable_styling() %>% 
  print()

## # A tibble: 31 x 6
##    symbol min_return max_return mean_return median_return sd_return
##    <chr>       <dbl>      <dbl>       <dbl>         <dbl>     <dbl>
##  1 AAPL       -0.181     0.200     0.0387         0.0513     0.0873
##  2 AMGN       -0.104     0.180     0.0171         0.0235     0.0664
##  3 AXP        -0.221     0.0988    0.0109         0.0150     0.0639
##  4 BA         -0.458     0.257     0.0124         0.0250     0.120 
##  5 CAT        -0.199     0.138     0.0151         0.0318     0.0742
##  6 CRM        -0.155     0.391     0.0350         0.0403     0.0850
##  7 CSCO       -0.155     0.130     0.0125         0.0185     0.0673
##  8 CVX        -0.224     0.270    -0.000926       0.00173    0.0748
##  9 DIS        -0.179     0.234     0.00967       -0.00208    0.0750
## 10 DOW        -0.276     0.255     0.00898        0.0456     0.128 
## # … with 21 more rows
…
